{"failedCount":1,"prefixedPath":"aula_karate\/src\/test\/java\/aula_inatel\/pokemon\/pokemon.feature","packageQualifiedName":"aula_karate.src.test.java.aula_inatel.pokemon.pokemon","loopIndex":-1,"relativePath":"aula_karate\/src\/test\/java\/aula_inatel\/pokemon\/pokemon.feature","scenarioResults":[{"sectionIndex":1,"stepResults":[{"result":{"nanos":66624300,"millis":66.6243,"status":"passed"},"step":{"line":9,"prefix":"Given","index":0,"text":"url \"https:\/\/pokeapi.co\/api\/v2\/pokemon\/\""}},{"result":{"nanos":1206072600,"millis":1206.0726,"status":"passed"},"step":{"line":10,"prefix":"When","index":1,"text":"method get"},"stepLog":"18:04:05.085 request:\n1 > GET https:\/\/pokeapi.co\/api\/v2\/pokemon\/\n1 > Host: pokeapi.co\n1 > Connection: Keep-Alive\n1 > User-Agent: Apache-HttpClient\/4.5.14 (Java\/17.0.6)\n1 > Accept-Encoding: gzip,deflate\n\n\n18:04:05.905 response time in milliseconds: 670\n1 < 200\n1 < Date: Mon, 22 May 2023 21:04:09 GMT\n1 < Content-Type: application\/json; charset=utf-8\n1 < Connection: keep-alive\n1 < access-control-allow-origin: *\n1 < Cache-Control: public, max-age=86400, s-maxage=86400\n1 < etag: W\/\"589-gxKdAdBiut\/GLsMZYq1M7sqXh9A\"\n1 < function-execution-id: yexr7ugvdv63\n1 < strict-transport-security: max-age=31556926\n1 < x-cloud-trace-context: 29c430a6133fcf2d687f41f14a0b27dc\n1 < x-country-code: CA\n1 < x-orig-accept-language: en-US\n1 < x-powered-by: Express\n1 < x-served-by: cache-yyz4572-YYZ\n1 < x-cache: HIT\n1 < x-cache-hits: 1\n1 < x-timer: S1681538446.609246,VS0,VE1\n1 < vary: Accept-Encoding,cookie,need-authorization, x-fh-requested-host, accept-encoding\n1 < alt-svc: h3=\":443\"; ma=86400, h3-29=\":443\"; ma=86400\n1 < CF-Cache-Status: HIT\n1 < Age: 74830\n1 < Accept-Ranges: bytes\n1 < Report-To: {\"endpoints\":[{\"url\":\"https:\\\/\\\/a.nel.cloudflare.com\\\/report\\\/v3?s=8IolIb4DiXwSGbsmS7zTwcd8BHteLLJ27LlRP%2BUG5RcTuvpIvSBJ118SGhpaMm4GqLDUNkMYcE1MdwYOip8GqyDgq3kVGbz0FdJX7ih%2BXbBAaMokz%2Bxx0oJtj9zE\"}],\"group\":\"cf-nel\",\"max_age\":604800}\n1 < NEL: {\"success_fraction\":0,\"report_to\":\"cf-nel\",\"max_age\":604800}\n1 < Server: cloudflare\n1 < CF-RAY: 7cb802885f6a05f4-IAD\n{\"count\":1281,\"next\":\"https:\/\/pokeapi.co\/api\/v2\/pokemon\/?offset=20&limit=20\",\"previous\":null,\"results\":[{\"name\":\"bulbasaur\",\"url\":\"https:\/\/pokeapi.co\/api\/v2\/pokemon\/1\/\"},{\"name\":\"ivysaur\",\"url\":\"https:\/\/pokeapi.co\/api\/v2\/pokemon\/2\/\"},{\"name\":\"venusaur\",\"url\":\"https:\/\/pokeapi.co\/api\/v2\/pokemon\/3\/\"},{\"name\":\"charmander\",\"url\":\"https:\/\/pokeapi.co\/api\/v2\/pokemon\/4\/\"},{\"name\":\"charmeleon\",\"url\":\"https:\/\/pokeapi.co\/api\/v2\/pokemon\/5\/\"},{\"name\":\"charizard\",\"url\":\"https:\/\/pokeapi.co\/api\/v2\/pokemon\/6\/\"},{\"name\":\"squirtle\",\"url\":\"https:\/\/pokeapi.co\/api\/v2\/pokemon\/7\/\"},{\"name\":\"wartortle\",\"url\":\"https:\/\/pokeapi.co\/api\/v2\/pokemon\/8\/\"},{\"name\":\"blastoise\",\"url\":\"https:\/\/pokeapi.co\/api\/v2\/pokemon\/9\/\"},{\"name\":\"caterpie\",\"url\":\"https:\/\/pokeapi.co\/api\/v2\/pokemon\/10\/\"},{\"name\":\"metapod\",\"url\":\"https:\/\/pokeapi.co\/api\/v2\/pokemon\/11\/\"},{\"name\":\"butterfree\",\"url\":\"https:\/\/pokeapi.co\/api\/v2\/pokemon\/12\/\"},{\"name\":\"weedle\",\"url\":\"https:\/\/pokeapi.co\/api\/v2\/pokemon\/13\/\"},{\"name\":\"kakuna\",\"url\":\"https:\/\/pokeapi.co\/api\/v2\/pokemon\/14\/\"},{\"name\":\"beedrill\",\"url\":\"https:\/\/pokeapi.co\/api\/v2\/pokemon\/15\/\"},{\"name\":\"pidgey\",\"url\":\"https:\/\/pokeapi.co\/api\/v2\/pokemon\/16\/\"},{\"name\":\"pidgeotto\",\"url\":\"https:\/\/pokeapi.co\/api\/v2\/pokemon\/17\/\"},{\"name\":\"pidgeot\",\"url\":\"https:\/\/pokeapi.co\/api\/v2\/pokemon\/18\/\"},{\"name\":\"rattata\",\"url\":\"https:\/\/pokeapi.co\/api\/v2\/pokemon\/19\/\"},{\"name\":\"raticate\",\"url\":\"https:\/\/pokeapi.co\/api\/v2\/pokemon\/20\/\"}]}\n\n"},{"result":{"nanos":17480600,"errorMessage":"status code was: 200, expected: 404, response time in milliseconds: 670, url: https:\/\/pokeapi.co\/api\/v2\/pokemon\/, response: \n{\"count\":1281,\"next\":\"https:\/\/pokeapi.co\/api\/v2\/pokemon\/?offset=20&limit=20\",\"previous\":null,\"results\":[{\"name\":\"bulbasaur\",\"url\":\"https:\/\/pokeapi.co\/api\/v2\/pokemon\/1\/\"},{\"name\":\"ivysaur\",\"url\":\"https:\/\/pokeapi.co\/api\/v2\/pokemon\/2\/\"},{\"name\":\"venusaur\",\"url\":\"https:\/\/pokeapi.co\/api\/v2\/pokemon\/3\/\"},{\"name\":\"charmander\",\"url\":\"https:\/\/pokeapi.co\/api\/v2\/pokemon\/4\/\"},{\"name\":\"charmeleon\",\"url\":\"https:\/\/pokeapi.co\/api\/v2\/pokemon\/5\/\"},{\"name\":\"charizard\",\"url\":\"https:\/\/pokeapi.co\/api\/v2\/pokemon\/6\/\"},{\"name\":\"squirtle\",\"url\":\"https:\/\/pokeapi.co\/api\/v2\/pokemon\/7\/\"},{\"name\":\"wartortle\",\"url\":\"https:\/\/pokeapi.co\/api\/v2\/pokemon\/8\/\"},{\"name\":\"blastoise\",\"url\":\"https:\/\/pokeapi.co\/api\/v2\/pokemon\/9\/\"},{\"name\":\"caterpie\",\"url\":\"https:\/\/pokeapi.co\/api\/v2\/pokemon\/10\/\"},{\"name\":\"metapod\",\"url\":\"https:\/\/pokeapi.co\/api\/v2\/pokemon\/11\/\"},{\"name\":\"butterfree\",\"url\":\"https:\/\/pokeapi.co\/api\/v2\/pokemon\/12\/\"},{\"name\":\"weedle\",\"url\":\"https:\/\/pokeapi.co\/api\/v2\/pokemon\/13\/\"},{\"name\":\"kakuna\",\"url\":\"https:\/\/pokeapi.co\/api\/v2\/pokemon\/14\/\"},{\"name\":\"beedrill\",\"url\":\"https:\/\/pokeapi.co\/api\/v2\/pokemon\/15\/\"},{\"name\":\"pidgey\",\"url\":\"https:\/\/pokeapi.co\/api\/v2\/pokemon\/16\/\"},{\"name\":\"pidgeotto\",\"url\":\"https:\/\/pokeapi.co\/api\/v2\/pokemon\/17\/\"},{\"name\":\"pidgeot\",\"url\":\"https:\/\/pokeapi.co\/api\/v2\/pokemon\/18\/\"},{\"name\":\"rattata\",\"url\":\"https:\/\/pokeapi.co\/api\/v2\/pokemon\/19\/\"},{\"name\":\"raticate\",\"url\":\"https:\/\/pokeapi.co\/api\/v2\/pokemon\/20\/\"}]}\naula_karate\/src\/test\/java\/aula_inatel\/pokemon\/pokemon.feature:11","millis":17.4806,"status":"failed"},"step":{"line":11,"prefix":"Then","index":2,"text":"status 404"},"stepLog":"18:04:06.028 aula_karate\/src\/test\/java\/aula_inatel\/pokemon\/pokemon.feature:11\nThen status 404\nstatus code was: 200, expected: 404, response time in milliseconds: 670, url: https:\/\/pokeapi.co\/api\/v2\/pokemon\/, response: \n{\"count\":1281,\"next\":\"https:\/\/pokeapi.co\/api\/v2\/pokemon\/?offset=20&limit=20\",\"previous\":null,\"results\":[{\"name\":\"bulbasaur\",\"url\":\"https:\/\/pokeapi.co\/api\/v2\/pokemon\/1\/\"},{\"name\":\"ivysaur\",\"url\":\"https:\/\/pokeapi.co\/api\/v2\/pokemon\/2\/\"},{\"name\":\"venusaur\",\"url\":\"https:\/\/pokeapi.co\/api\/v2\/pokemon\/3\/\"},{\"name\":\"charmander\",\"url\":\"https:\/\/pokeapi.co\/api\/v2\/pokemon\/4\/\"},{\"name\":\"charmeleon\",\"url\":\"https:\/\/pokeapi.co\/api\/v2\/pokemon\/5\/\"},{\"name\":\"charizard\",\"url\":\"https:\/\/pokeapi.co\/api\/v2\/pokemon\/6\/\"},{\"name\":\"squirtle\",\"url\":\"https:\/\/pokeapi.co\/api\/v2\/pokemon\/7\/\"},{\"name\":\"wartortle\",\"url\":\"https:\/\/pokeapi.co\/api\/v2\/pokemon\/8\/\"},{\"name\":\"blastoise\",\"url\":\"https:\/\/pokeapi.co\/api\/v2\/pokemon\/9\/\"},{\"name\":\"caterpie\",\"url\":\"https:\/\/pokeapi.co\/api\/v2\/pokemon\/10\/\"},{\"name\":\"metapod\",\"url\":\"https:\/\/pokeapi.co\/api\/v2\/pokemon\/11\/\"},{\"name\":\"butterfree\",\"url\":\"https:\/\/pokeapi.co\/api\/v2\/pokemon\/12\/\"},{\"name\":\"weedle\",\"url\":\"https:\/\/pokeapi.co\/api\/v2\/pokemon\/13\/\"},{\"name\":\"kakuna\",\"url\":\"https:\/\/pokeapi.co\/api\/v2\/pokemon\/14\/\"},{\"name\":\"beedrill\",\"url\":\"https:\/\/pokeapi.co\/api\/v2\/pokemon\/15\/\"},{\"name\":\"pidgey\",\"url\":\"https:\/\/pokeapi.co\/api\/v2\/pokemon\/16\/\"},{\"name\":\"pidgeotto\",\"url\":\"https:\/\/pokeapi.co\/api\/v2\/pokemon\/17\/\"},{\"name\":\"pidgeot\",\"url\":\"https:\/\/pokeapi.co\/api\/v2\/pokemon\/18\/\"},{\"name\":\"rattata\",\"url\":\"https:\/\/pokeapi.co\/api\/v2\/pokemon\/19\/\"},{\"name\":\"raticate\",\"url\":\"https:\/\/pokeapi.co\/api\/v2\/pokemon\/20\/\"}]}\naula_karate\/src\/test\/java\/aula_inatel\/pokemon\/pokemon.feature:11\n"}],"line":8,"description":"","durationMillis":1290.1775,"failed":true,"error":"status code was: 200, expected: 404, response time in milliseconds: 670, url: https:\/\/pokeapi.co\/api\/v2\/pokemon\/, response: \n{\"count\":1281,\"next\":\"https:\/\/pokeapi.co\/api\/v2\/pokemon\/?offset=20&limit=20\",\"previous\":null,\"results\":[{\"name\":\"bulbasaur\",\"url\":\"https:\/\/pokeapi.co\/api\/v2\/pokemon\/1\/\"},{\"name\":\"ivysaur\",\"url\":\"https:\/\/pokeapi.co\/api\/v2\/pokemon\/2\/\"},{\"name\":\"venusaur\",\"url\":\"https:\/\/pokeapi.co\/api\/v2\/pokemon\/3\/\"},{\"name\":\"charmander\",\"url\":\"https:\/\/pokeapi.co\/api\/v2\/pokemon\/4\/\"},{\"name\":\"charmeleon\",\"url\":\"https:\/\/pokeapi.co\/api\/v2\/pokemon\/5\/\"},{\"name\":\"charizard\",\"url\":\"https:\/\/pokeapi.co\/api\/v2\/pokemon\/6\/\"},{\"name\":\"squirtle\",\"url\":\"https:\/\/pokeapi.co\/api\/v2\/pokemon\/7\/\"},{\"name\":\"wartortle\",\"url\":\"https:\/\/pokeapi.co\/api\/v2\/pokemon\/8\/\"},{\"name\":\"blastoise\",\"url\":\"https:\/\/pokeapi.co\/api\/v2\/pokemon\/9\/\"},{\"name\":\"caterpie\",\"url\":\"https:\/\/pokeapi.co\/api\/v2\/pokemon\/10\/\"},{\"name\":\"metapod\",\"url\":\"https:\/\/pokeapi.co\/api\/v2\/pokemon\/11\/\"},{\"name\":\"butterfree\",\"url\":\"https:\/\/pokeapi.co\/api\/v2\/pokemon\/12\/\"},{\"name\":\"weedle\",\"url\":\"https:\/\/pokeapi.co\/api\/v2\/pokemon\/13\/\"},{\"name\":\"kakuna\",\"url\":\"https:\/\/pokeapi.co\/api\/v2\/pokemon\/14\/\"},{\"name\":\"beedrill\",\"url\":\"https:\/\/pokeapi.co\/api\/v2\/pokemon\/15\/\"},{\"name\":\"pidgey\",\"url\":\"https:\/\/pokeapi.co\/api\/v2\/pokemon\/16\/\"},{\"name\":\"pidgeotto\",\"url\":\"https:\/\/pokeapi.co\/api\/v2\/pokemon\/17\/\"},{\"name\":\"pidgeot\",\"url\":\"https:\/\/pokeapi.co\/api\/v2\/pokemon\/18\/\"},{\"name\":\"rattata\",\"url\":\"https:\/\/pokeapi.co\/api\/v2\/pokemon\/19\/\"},{\"name\":\"raticate\",\"url\":\"https:\/\/pokeapi.co\/api\/v2\/pokemon\/20\/\"}]}\naula_karate\/src\/test\/java\/aula_inatel\/pokemon\/pokemon.feature:11","executorName":"main","name":"Testando retorno peple\/1\/ com informacões invalidas","startTime":1684789444704,"refId":"[2:8]","endTime":1684789446028,"exampleIndex":-1}],"callDepth":0,"name":"Testando API StarWars","description":"","resultDate":"2023-05-22 06:04:06 PM","durationMillis":1290.1775,"passedCount":0}